INSTRUCTOR SOLUTIONS: Introduction to regularized adjusted plus-minus (RAPM) – CMU SCORE Module Preprint Repository
…
nba_player_table <- read_csv("https://data.scorenetwork.org/data/nba_2223_player_table.csv")

Rows: 539 Columns: 2
── Column specification ────────────────────────────────────────────────────────
Delimiter: ","
chr (1): player_name
dbl (1): player_id

ℹ Use `spec()` to retrieve the full column specification for this data.
ℹ Specify the column types or set `show_col_types = FALSE` to quiet this message.

nba_player_table

# A tibble: 539 × 2
   player_id player_name             
       <dbl> <chr>                   
 1   1630173 Precious Achiuwa        
 2    203500 Steven Adams            
 3   1628389 Bam Adebayo             
 4   1630534 Ochai Agbaji            
 5   1630583 Santi Aldama            
 6   1629638 Nickeil Alexander-Walker
 7   1628960 Grayson Allen           
 8   1628386 Jarrett Allen           
 9   1630631 Jose Alvarado           
10    203937 Kyle Anderson           
# ℹ 529 more rows
…
\(X_{tj} = 1\) if player \(j\) is on the court for the home team during shift \(t\)

\(X_{tj} = -1\) if player \(j\) is on the court for the away team during shift \(t\)

\(X_{tj} = 0\) if player \(j\) is not on the court during shift \(t\)

Note

There are a number of different ways to set-up the APM design matrix \(X\), but we will only consider this design based on home and away team status in this module.

As discussed at the beginning of this module, the nba_rapm_data you loaded contains these player indicator variables. The code chunk below prints the first so many rows of this dataset:

nba_rapm_data

# A tibble: 32,358 × 546
   game_id    stint_id n_pos home_points away_points minutes margin `201939`
   <chr>         <dbl> <dbl>       <dbl>       <dbl>   <dbl>  <dbl>    <dbl>
 1 0022200002        1    14           5           2   2.7     21.4        1
 2 0022200002        2     9           6           2   1.67    44.4        1
 3 0022200002        3     5           0           3   0.480  -60          1
 4 0022200002        4     5           5           1   0.78    80          1
 5 0022200002        5     9           3           6   1.52   -33.3        1
 6 0022200002        6     8           0           6   1.45   -75          1
 7 0022200002        7     5           0           0   0.800    0          0
 8 0022200002        8     5           1           0   0.9     20          0
 9 0022200002        9     3           2           0   0.97    66.7        0
10 0022200002       10     7           2           2   1.66     0          1
# ℹ 32,348 more rows
# ℹ 538 more variables: `202691` <dbl>, `203110` <dbl>, `203952` <dbl>,
#   `1626172` <dbl>, `1629673` <dbl>, `203210` <dbl>, `1630164` <dbl>,
#   `1630228` <dbl>, `1628978` <dbl>, `1630541` <dbl>, `1631157` <dbl>,
#   `201143` <dbl>, `203935` <dbl>, `1627759` <dbl>, `1628369` <dbl>,
#   `1628401` <dbl>, `203943` <dbl>, `1629684` <dbl>, `1627763` <dbl>,
#   `201933` <dbl>, `1630573` <dbl>, `101108` <dbl>, `1626164` <dbl>, …
…
weights = nba_rapm_data$n_pos ensures that we are using weighted least squares with the n_pos column (number of possessions during the shift) as the weights.

Thought Exercise

QUESTION: Why is it appropriate to remove the intercept term in the above regression model?

ANSWER: We need to remove the intercept term in the APM because it is impossible for every column of \(X\) to be 0, i.e., we will always observe 10 columns to have non-zero values in every single row of the dataset. This means the intercept term is nonsensical and should be removed from model fitting.

We’re not going to view the summary of this model since it is a bit of a mess (there are many player variables!). Instead, we’ll take advantage of the broom package to view the coefficients. The code chunk below demonstrates how to use the broom package to tidy up the output so that one row of the rosenbaum_coef table corresponds to a single player coefficient with information you would observe from the summary() output such as the coefficient estimate (estimate), standard error (std.error), \(t\)-statistic (statistic), \(p\)-value (p.value):

library(broom)
rosenbaum_coef <- tidy(rosenbaum_model)
rosenbaum_coef

# A tibble: 539 × 5
   term      estimate std.error statistic p.value
   <chr>        <dbl>     <dbl>     <dbl>   <dbl>
 1 `201939`   -0.303       1.58   -0.192    0.848
 2 `202691`   -1.01        1.58   -0.641    0.521
 3 `203110`    0.214       1.58    0.135    0.892
 4 `203952`    0.0336      1.58    0.0213   0.983
 5 `1626172`  -0.417       1.58   -0.265    0.791
 6 `1629673`  -1.36        1.57   -0.866    0.386
 7 `203210`   -0.971       1.58   -0.613    0.540
 8 `1630164`  -1.02        1.59   -0.640    0.522
 9 `1630228`  -0.663       1.58   -0.421    0.674
10 `1628978`  -0.565       1.57   -0.359    0.720
# ℹ 529 more rows

In this current form, we have no idea which player is which since the term column contains the unique ID for each player. However, we can take advantage of the previously loaded nba_player_table (which has the same number of rows as rosenbaum_coef) to join over the player names to the rosenbaum_coef table.

We first need to modify the term column by removing the back-tick symbols and then convert the IDs to numeric values before joining over the player names. The code chunk below performs these steps, using the left_join() function by matching the two tables on the term and player_id columns:

rosenbaum_coef <- rosenbaum_coef |>
  # First convert the term column to numeric:
  mutate(term = as.numeric(str_remove_all(term, "`"))) |>
  # Now join the player names:
  left_join(nba_player_table, by = c("term" = "player_id"))
rosenbaum_coef

# A tibble: 539 × 6
      term estimate std.error statistic p.value player_name     
     <dbl>    <dbl>     <dbl>     <dbl>   <dbl> <chr>           
 1  201939  -0.303       1.58   -0.192    0.848 Stephen Curry   
 2  202691  -1.01        1.58   -0.641    0.521 Klay Thompson   
 3  203110   0.214       1.58    0.135    0.892 Draymond Green  
 4  203952   0.0336      1.58    0.0213   0.983 Andrew Wiggins  
 5 1626172  -0.417       1.58   -0.265    0.791 Kevon Looney    
 6 1629673  -1.36        1.57   -0.866    0.386 Jordan Poole    
 7  203210  -0.971       1.58   -0.613    0.540 JaMychal Green  
 8 1630164  -1.02        1.59   -0.640    0.522 James Wiseman   
 9 1630228  -0.663       1.58   -0.421    0.674 Jonathan Kuminga
10 1628978  -0.565       1.57   -0.359    0.720 Donte DiVincenzo
# ℹ 529 more rows
…
Similar to the APM model analyis, we can again use the the broom package to make a tidy table of the coefficients for each player:

tidy_ridge_coef <- tidy(fit_ridge_cv$glmnet.fit)
tidy_ridge_coef

# A tibble: 53,900 × 5
   term    step estimate lambda dev.ratio
   <chr>  <dbl>    <dbl>  <dbl>     <dbl>
 1 201939     1 2.77e-39   328.  1.45e-39
 2 201939     2 6.41e- 4   299.  3.30e- 4
 3 201939     3 7.23e- 4   273.  3.59e- 4
 4 201939     4 7.91e- 4   248.  3.93e- 4
 5 201939     5 8.69e- 4   226.  4.30e- 4
 6 201939     6 9.54e- 4   206.  4.70e- 4
 7 201939     7 1.05e- 3   188.  5.14e- 4
 8 201939     8 1.15e- 3   171.  5.62e- 4
 9 201939     9 1.27e- 3   156.  6.14e- 4
10 201939    10 1.39e- 3   142.  6.70e- 4
# ℹ 53,890 more rows
…
