CMU SCORE Module Preprint Repository - Introduction to Elo ratings (INSTRUCTOR SOLUTIONS)
…
The purpose of this module is to introduce the basics of Elo ratings in the context of measuring NFL team strengths. This file contains guided exercises demonstrating how to implement Elo ratings from scratch in R.

We’ll use a subset of the NFL Game Outcomes dataset available on the SCORE Sports Data Repository, only considering games during the 2023-24 season. The following code chunk reads in the larger dataset and filters down to only include games during the 2023-24 season:

# Need to have the tidyverse installed prior to starting!
library(tidyverse)

nfl_games <- read_csv("https://data.scorenetwork.org/data/nfl_mahomes_era_games.csv") |>
  filter(season == 2023)

As indicated in the overview page for the larger dataset, each row in the dataset corresponds to a single game played during the 2023-24 season:

nfl_games

# A tibble: 285 × 10
   season game_id      game_type  week home_team away_team home_score away_score
    <dbl> <chr>        <chr>     <dbl> <chr>     <chr>          <dbl>      <dbl>
 1   2023 2023_01_DET… REG           1 KC        DET               20         21
 2   2023 2023_01_CAR… REG           1 ATL       CAR               24         10
 3   2023 2023_01_HOU… REG           1 BAL       HOU               25          9
 4   2023 2023_01_CIN… REG           1 CLE       CIN               24          3
 5   2023 2023_01_JAX… REG           1 IND       JAX               21         31
 6   2023 2023_01_TB_… REG           1 MIN       TB                17         20
 7   2023 2023_01_TEN… REG           1 NO        TEN               16         15
 8   2023 2023_01_SF_… REG           1 PIT       SF                 7         30
 9   2023 2023_01_ARI… REG           1 WAS       ARI               20         16
10   2023 2023_01_GB_… REG           1 CHI       GB                20         38
# ℹ 275 more rows
# ℹ 2 more variables: game_outcome <dbl>, score_diff <dbl>
…
The team’s rating improves to roughly 1318 after winning. Since the maximum number of possible points is \(K = 20\), this is indicative of how beating a team with a rating of 1700 was relatively unexpected and nearly earned the team the maximum possible 20 points.

NFL Elo Ratings

Now with the basics, let’s move on to perform these calculations over the entire season, updating a table to include each team’s Elo rating following every game. We can implement this using a for loop to proceed through each game in the nfl_games table, looking up each team’s previous ratings and performing the above calculations.

Prior to beginning this loop, we will set-up a table initializing each team with a rating of 1500. This a naive approach since we likely have prior knowledge about each team’s strength before the start of the season, but we’ll discuss this in more detail at the end of the module. For now, we’ll use 1500 since it is a common choice for initializing Elo ratings. The code chunk below initializes this starting table of ratings beginning with an imaginary week 0:

nfl_elo_ratings <- tibble(team = unique(nfl_games$home_team),
                          elo_rating = 1500,
                          week = 0)
nfl_elo_ratings

# A tibble: 32 × 3
   team  elo_rating  week
   <chr>      <dbl> <dbl>
 1 KC          1500     0
 2 ATL         1500     0
 3 BAL         1500     0
 4 CLE         1500     0
 5 IND         1500     0
 6 MIN         1500     0
 7 NO          1500     0
 8 PIT         1500     0
 9 WAS         1500     0
10 CHI         1500     0
# ℹ 22 more rows
…
}

After you run the completed for loop, you can view and inspect the ratings in different ways. For example, the following code chunk will return the final rating for each after the completion of the entire season of games:

nfl_elo_ratings |>
  group_by(team) |>
  # Since some teams make the playoffs, need to find the rating 
  # for each team's final weeK:
  summarize(final_rating = elo_rating[which.max(week)]) |>
  # Sort in descending order of the rating so the best team is first:
  arrange(desc(final_rating))

# A tibble: 32 × 2
   team  final_rating
   <chr>        <dbl>
 1 KC           1576.
 2 BAL          1575.
 3 SF           1564.
 4 DET          1561.
 5 BUF          1547.
 6 DAL          1546.
 7 CLE          1532.
 8 HOU          1528.
 9 MIA          1525.
10 LA           1523.
# ℹ 22 more rows
…
Next, we can join the ratings stored in these two tables to the nfl_games table to estimate the expected outcome with respect to the home team. The following code chunk demonstrates how to left_join the team ratings, and then compute the probability of winning for the home team:

upd_nfl_games <- nfl_games |>
  # First join home team by the team abbreviation and week
  left_join(home_elo_ratings, by = c("home_team", "week")) |>
  # Repeat for away team ratings:
  left_join(away_elo_ratings, by = c("away_team", "week")) |>
  # And now compute the expectation, home_win_prob:
  mutate(home_win_prob = calc_expected_score(home_elo_rating,
                                             away_elo_rating))
upd_nfl_games

# A tibble: 285 × 13
   season game_id      game_type  week home_team away_team home_score away_score
    <dbl> <chr>        <chr>     <dbl> <chr>     <chr>          <dbl>      <dbl>
 1   2023 2023_01_DET… REG           1 KC        DET               20         21
 2   2023 2023_01_CAR… REG           1 ATL       CAR               24         10
 3   2023 2023_01_HOU… REG           1 BAL       HOU               25          9
 4   2023 2023_01_CIN… REG           1 CLE       CIN               24          3
 5   2023 2023_01_JAX… REG           1 IND       JAX               21         31
 6   2023 2023_01_TB_… REG           1 MIN       TB                17         20
 7   2023 2023_01_TEN… REG           1 NO        TEN               16         15
 8   2023 2023_01_SF_… REG           1 PIT       SF                 7         30
 9   2023 2023_01_ARI… REG           1 WAS       ARI               20         16
10   2023 2023_01_GB_… REG           1 CHI       GB                20         38
# ℹ 275 more rows
# ℹ 5 more variables: game_outcome <dbl>, score_diff <dbl>,
#   home_elo_rating <dbl>, away_elo_rating <dbl>, home_win_prob <dbl>
…
